{
  "name": "senamecuida",
  "version": "1.1.0",
  "engines": {
    "node": "14.x"
  },
  "private": true,
  "homepage": "http://localhost:3008",
  "dependencies": {
    "@fortawesome/fontawesome-svg-core": "^1.2.28",
    "@fortawesome/free-brands-svg-icons": "^5.13.0",
    "@fortawesome/free-solid-svg-icons": "^5.13.0",
    "@fortawesome/react-fontawesome": "^0.1.10",
    "@material-ui/core": "^4.11.0",
    "@material-ui/icons": "^4.9.1",
    "@testing-library/jest-dom": "^4.2.4",
    "@testing-library/react": "^9.5.0",
    "@testing-library/user-event": "^7.2.1",
    "antd": "^4.4.2",
    "axios": "^0.21.4",
    "bootstrap": "^4.5.0",
    "bootstrap-sweetalert": "^1.0.1",
    "chart.js": "^2.9.3",
    "dotenv": "^8.2.0",
    "js-base64": "^3.5.2",
    "jwt-decode": "^2.2.0",
    "material-table": "^1.63.0",
    "moment": "^2.27.0",
    "moment-timezone": "^0.5.31",
    "mui-datatables": "^3.1.5",
    "prop-types": "^15.7.2",
    "react": "^16.13.1",
    "react-bootstrap": "^1.0.1",
    "react-chartjs-2": "^2.9.0",
    "react-dom": "^16.13.1",
    "react-flexbox-grid": "^2.1.2",
    "react-google-recaptcha": "^2.1.0",
    "react-number-format": "^4.4.1",
    "react-router-dom": "^5.2.0",
    "react-scripts": "^2.0.0",
    "react-text-mask": "^5.4.3",
    "sweetalert2": "^9.15.2",
    "validator": "^13.1.1"
  },
  "scripts": {
    "start": "react-scripts start",
    "build": "react-scripts build",
    "test": "react-scripts test",
    "eject": "react-scripts eject"
  },
  "eslintConfig": {
    "extends": "react-app"
  },
  "browserslist": {
    "production": [
      ">0.2%",
      "not op_mini all"
    ],
    "development": [
      "last 1 chrome version",
      "last 1 firefox version",
      "last 1 safari version"
    ]
  }
}


